mkdir: cannot create directory 'debug': File exists
/home/adminq/Git/IPP-jn431513/src/poly.c: In function 'PolyRmEndData':
/home/adminq/Git/IPP-jn431513/src/poly.c:74:20: warning: comparison of integer expressions of different signedness: 'int' and 'size_t' {aka 'long unsigned int'} [-Wsign-compare]
   74 |   for(int i = 0; i < p->size; ++i){
      |                    ^
/home/adminq/Git/IPP-jn431513/src/poly.c: In function 'PolyDelZeroMono':
/home/adminq/Git/IPP-jn431513/src/poly.c:94:13: warning: comparison of integer expressions of different signedness: 'int' and 'size_t' {aka 'long unsigned int'} [-Wsign-compare]
   94 |     if(slow >= p->size){
      |             ^~
/home/adminq/Git/IPP-jn431513/src/poly.c:102:39: warning: comparison of integer expressions of different signedness: 'int' and 'size_t' {aka 'long unsigned int'} [-Wsign-compare]
  102 |   for(fast = slow + 1, slow = 0; slow < p->size && fast < p->size;){
      |                                       ^
/home/adminq/Git/IPP-jn431513/src/poly.c:102:57: warning: comparison of integer expressions of different signedness: 'int' and 'size_t' {aka 'long unsigned int'} [-Wsign-compare]
  102 |   for(fast = slow + 1, slow = 0; slow < p->size && fast < p->size;){
      |                                                         ^
/home/adminq/Git/IPP-jn431513/src/poly.c:103:16: warning: comparison of integer expressions of different signedness: 'int' and 'size_t' {aka 'long unsigned int'} [-Wsign-compare]
  103 |     while(fast < p->size && PolyDeg(&(p->arr[fast].p)) == -1){
      |                ^
/home/adminq/Git/IPP-jn431513/src/poly.c:107:13: warning: comparison of integer expressions of different signedness: 'int' and 'size_t' {aka 'long unsigned int'} [-Wsign-compare]
  107 |     if(fast < p->size){
      |             ^
/home/adminq/Git/IPP-jn431513/src/poly.c: In function 'PolyLayerSimplify':
/home/adminq/Git/IPP-jn431513/src/poly.c:117:32: warning: comparison of integer expressions of different signedness: 'poly_exp_t' {aka 'int'} and 'size_t' {aka 'long unsigned int'} [-Wsign-compare]
  117 |   for(slow = 0, fast = 1; slow < p->size && fast < p->size;){
      |                                ^
/home/adminq/Git/IPP-jn431513/src/poly.c:117:50: warning: comparison of integer expressions of different signedness: 'poly_exp_t' {aka 'int'} and 'size_t' {aka 'long unsigned int'} [-Wsign-compare]
  117 |   for(slow = 0, fast = 1; slow < p->size && fast < p->size;){
      |                                                  ^
/home/adminq/Git/IPP-jn431513/src/poly.c:118:16: warning: comparison of integer expressions of different signedness: 'poly_exp_t' {aka 'int'} and 'size_t' {aka 'long unsigned int'} [-Wsign-compare]
  118 |     while(fast < p->size && p->arr[slow].exp == p->arr[fast].exp){
      |                ^
/home/adminq/Git/IPP-jn431513/src/poly.c:123:13: warning: comparison of integer expressions of different signedness: 'poly_exp_t' {aka 'int'} and 'size_t' {aka 'long unsigned int'} [-Wsign-compare]
  123 |     if(fast < p->size)
      |             ^
/home/adminq/Git/IPP-jn431513/src/poly.c: In function 'PolySimplify':
/home/adminq/Git/IPP-jn431513/src/poly.c:132:22: warning: comparison of integer expressions of different signedness: 'int' and 'size_t' {aka 'long unsigned int'} [-Wsign-compare]
  132 |     for(int i = 0; i < p->size; ++i){
      |                      ^
/home/adminq/Git/IPP-jn431513/src/poly.c: In function 'PolySortHelp':
/home/adminq/Git/IPP-jn431513/src/poly.c:151:29: warning: comparison of integer expressions of different signedness: 'poly_exp_t' {aka 'int'} and 'size_t' {aka 'long unsigned int'} [-Wsign-compare]
  151 |     for(poly_exp_t i = 0; i < p->size; ++i){
      |                             ^
/home/adminq/Git/IPP-jn431513/src/poly.c: In function 'PolyArrZero':
/home/adminq/Git/IPP-jn431513/src/poly.c:166:6: error: static declaration of 'MonoSort' follows non-static declaration
  166 | void MonoSort(Mono* m){
      |      ^~~~~~~~
/home/adminq/Git/IPP-jn431513/src/poly.c:139:6: note: previous declaration of 'MonoSort' was here
  139 | void MonoSort(Mono* m);
      |      ^~~~~~~~
/home/adminq/Git/IPP-jn431513/src/poly.c: In function 'PolyDestroy':
/home/adminq/Git/IPP-jn431513/src/poly.c:172:29: warning: comparison of integer expressions of different signedness: 'poly_exp_t' {aka 'int'} and 'size_t' {aka 'long unsigned int'} [-Wsign-compare]
  172 |     for(poly_exp_t i = 0; i < p->size; ++i){
      |                             ^
/home/adminq/Git/IPP-jn431513/src/poly.c: In function 'PolyClone':
/home/adminq/Git/IPP-jn431513/src/poly.c:182:29: warning: comparison of integer expressions of different signedness: 'poly_exp_t' {aka 'int'} and 'size_t' {aka 'const long unsigned int'} [-Wsign-compare]
  182 |     for(poly_exp_t i = 0; i < p->size; ++i){
      |                             ^
/home/adminq/Git/IPP-jn431513/src/poly.c: In function 'PolyPrintHelp':
/home/adminq/Git/IPP-jn431513/src/poly.c:206:26: warning: comparison of integer expressions of different signedness: 'int' and 'size_t' {aka 'long unsigned int'} [-Wsign-compare]
  206 |         for(int i = 0; i < p->size; ++i){
      |                          ^
/home/adminq/Git/IPP-jn431513/src/poly.c:210:18: warning: comparison of integer expressions of different signedness: 'int' and 'size_t' {aka 'long unsigned int'} [-Wsign-compare]
  210 |             if(i < p->size - 1) printf(" + ");
      |                  ^
/home/adminq/Git/IPP-jn431513/src/poly.c: In function 'PolyArrZero':
/home/adminq/Git/IPP-jn431513/src/poly.c:215:6: error: static declaration of 'PolyPrint' follows non-static declaration
  215 | void PolyPrint(Poly *poly, int index){
      |      ^~~~~~~~~
/home/adminq/Git/IPP-jn431513/src/poly.c:198:6: note: previous declaration of 'PolyPrint' was here
  198 | void PolyPrint(Poly *poly, int index);
      |      ^~~~~~~~~
/home/adminq/Git/IPP-jn431513/src/poly.c: In function 'PolyAddNonCoeffs':
/home/adminq/Git/IPP-jn431513/src/poly.c:250:16: warning: comparison of integer expressions of different signedness: 'poly_exp_t' {aka 'int'} and 'size_t' {aka 'long unsigned int'} [-Wsign-compare]
  250 |   for(k = 0; i < p1->size && j < q1->size; ++k){
      |                ^
/home/adminq/Git/IPP-jn431513/src/poly.c:250:32: warning: comparison of integer expressions of different signedness: 'poly_exp_t' {aka 'int'} and 'size_t' {aka 'long unsigned int'} [-Wsign-compare]
  250 |   for(k = 0; i < p1->size && j < q1->size; ++k){
      |                                ^
In file included from /home/adminq/Git/IPP-jn431513/src/poly.c:8:
/home/adminq/Git/IPP-jn431513/src/poly.c:251:14: warning: comparison of integer expressions of different signedness: 'poly_exp_t' {aka 'int'} and 'size_t' {aka 'long unsigned int'} [-Wsign-compare]
  251 |     assert(k <= new->size);
      |              ^~
/home/adminq/Git/IPP-jn431513/src/poly.c:252:10: warning: comparison of integer expressions of different signedness: 'poly_exp_t' {aka 'int'} and 'size_t' {aka 'long unsigned int'} [-Wsign-compare]
  252 |     if(k == new->size){
      |          ^~
/home/adminq/Git/IPP-jn431513/src/poly.c:270:8: warning: comparison of integer expressions of different signedness: 'poly_exp_t' {aka 'int'} and 'size_t' {aka 'long unsigned int'} [-Wsign-compare]
  270 |   if(i >= p1->size){
      |        ^~
/home/adminq/Git/IPP-jn431513/src/poly.c:273:13: warning: comparison of integer expressions of different signedness: 'poly_exp_t' {aka 'int'} and 'size_t' {aka 'long unsigned int'} [-Wsign-compare]
  273 |   else if(j >= q1->size){
      |             ^~
/home/adminq/Git/IPP-jn431513/src/poly.c: In function 'PolyArrZero':
/home/adminq/Git/IPP-jn431513/src/poly.c:282:6: error: static declaration of 'PolyAddSorted' follows non-static declaration
  282 | Poly PolyAddSorted(Poly *p1, Poly *q1){
      |      ^~~~~~~~~~~~~
/home/adminq/Git/IPP-jn431513/src/poly.c:86:6: note: previous declaration of 'PolyAddSorted' was here
   86 | Poly PolyAddSorted(Poly *p1, Poly *q1);
      |      ^~~~~~~~~~~~~
/home/adminq/Git/IPP-jn431513/src/poly.c: In function 'PolyAddSorted':
/home/adminq/Git/IPP-jn431513/src/poly.c:300:31: warning: comparison of integer expressions of different signedness: 'poly_exp_t' {aka 'int'} and 'size_t' {aka 'long unsigned int'} [-Wsign-compare]
  300 |       for(poly_exp_t i = 0; i < p1->size; ++i){
      |                               ^
/home/adminq/Git/IPP-jn431513/src/poly.c: In function 'PolyAdd':
/home/adminq/Git/IPP-jn431513/src/poly.c:336:13: warning: passing argument 1 of 'PolyPrint' discards 'const' qualifier from pointer target type [-Wdiscarded-qualifiers]
  336 |   PolyPrint(p, 0);
      |             ^
/home/adminq/Git/IPP-jn431513/src/poly.c:215:22: note: expected 'Poly *' but argument is of type 'const Poly *'
  215 | void PolyPrint(Poly *poly, int index){
      |                ~~~~~~^~~~
/home/adminq/Git/IPP-jn431513/src/poly.c:337:13: warning: passing argument 1 of 'PolyPrint' discards 'const' qualifier from pointer target type [-Wdiscarded-qualifiers]
  337 |   PolyPrint(q, 0);
      |             ^
/home/adminq/Git/IPP-jn431513/src/poly.c:215:22: note: expected 'Poly *' but argument is of type 'const Poly *'
  215 | void PolyPrint(Poly *poly, int index){
      |                ~~~~~~^~~~
/home/adminq/Git/IPP-jn431513/src/poly.c:338:15: warning: passing argument 1 of 'PolyDestroy' discards 'const' qualifier from pointer target type [-Wdiscarded-qualifiers]
  338 |   PolyDestroy(p);
      |               ^
/home/adminq/Git/IPP-jn431513/src/poly.c:170:24: note: expected 'Poly *' but argument is of type 'const Poly *'
  170 | void PolyDestroy(Poly *p){
      |                  ~~~~~~^
/home/adminq/Git/IPP-jn431513/src/poly.c:339:15: warning: passing argument 1 of 'PolyDestroy' discards 'const' qualifier from pointer target type [-Wdiscarded-qualifiers]
  339 |   PolyDestroy(q);
      |               ^
/home/adminq/Git/IPP-jn431513/src/poly.c:170:24: note: expected 'Poly *' but argument is of type 'const Poly *'
  170 | void PolyDestroy(Poly *p){
      |                  ~~~~~~^
/home/adminq/Git/IPP-jn431513/src/poly.c:341:13: error: 'poly' undeclared (first use in this function); did you mean 'Poly'?
  341 |   PolyPrint(poly, 0);
      |             ^~~~
      |             Poly
/home/adminq/Git/IPP-jn431513/src/poly.c:341:13: note: each undeclared identifier is reported only once for each function it appears in
/home/adminq/Git/IPP-jn431513/src/poly.c:332:32: warning: unused variable 'q1' [-Wunused-variable]
  332 |   Poly *p1 = PolyClonePtr(p), *q1 = PolyClonePtr(q);
      |                                ^~
/home/adminq/Git/IPP-jn431513/src/poly.c: In function 'PolyAddMonos':
/home/adminq/Git/IPP-jn431513/src/poly.c:349:27: warning: comparison of integer expressions of different signedness: 'poly_exp_t' {aka 'int'} and 'size_t' {aka 'long unsigned int'} [-Wsign-compare]
  349 |   for(poly_exp_t i = 0; i < count; ++i){
      |                           ^
/home/adminq/Git/IPP-jn431513/src/poly.c: In function 'PolyMulSorted':
/home/adminq/Git/IPP-jn431513/src/poly.c:362:29: warning: comparison of integer expressions of different signedness: 'poly_exp_t' {aka 'int'} and 'size_t' {aka 'long unsigned int'} [-Wsign-compare]
  362 |     for(poly_exp_t i = 0; i < p1->size; ++i){
      |                             ^
/home/adminq/Git/IPP-jn431513/src/poly.c:363:31: warning: comparison of integer expressions of different signedness: 'poly_exp_t' {aka 'int'} and 'size_t' {aka 'long unsigned int'} [-Wsign-compare]
  363 |       for(poly_exp_t j = 0; j < q1->size; ++j){
      |                               ^
/home/adminq/Git/IPP-jn431513/src/poly.c:375:29: warning: comparison of integer expressions of different signedness: 'poly_exp_t' {aka 'int'} and 'size_t' {aka 'long unsigned int'} [-Wsign-compare]
  375 |     for(poly_exp_t i = 0; i < p1->size; ++i){
      |                             ^
/home/adminq/Git/IPP-jn431513/src/poly.c: In function 'PolyMul':
/home/adminq/Git/IPP-jn431513/src/poly.c:390:29: warning: comparison of integer expressions of different signedness: 'poly_exp_t' {aka 'int'} and 'size_t' {aka 'long unsigned int'} [-Wsign-compare]
  390 |     for(poly_exp_t i = 0; i < p1->size; ++i){
      |                             ^
/home/adminq/Git/IPP-jn431513/src/poly.c:391:31: warning: comparison of integer expressions of different signedness: 'poly_exp_t' {aka 'int'} and 'size_t' {aka 'long unsigned int'} [-Wsign-compare]
  391 |       for(poly_exp_t j = 0; j < q1->size; ++j){
      |                               ^
/home/adminq/Git/IPP-jn431513/src/poly.c:407:29: warning: comparison of integer expressions of different signedness: 'poly_exp_t' {aka 'int'} and 'size_t' {aka 'long unsigned int'} [-Wsign-compare]
  407 |     for(poly_exp_t i = 0; i < p1->size; ++i){
      |                             ^
/home/adminq/Git/IPP-jn431513/src/poly.c: In function 'PolyNegPtr':
/home/adminq/Git/IPP-jn431513/src/poly.c:425:29: warning: comparison of integer expressions of different signedness: 'poly_exp_t' {aka 'int'} and 'size_t' {aka 'long unsigned int'} [-Wsign-compare]
  425 |     for(poly_exp_t i = 0; i < p->size; ++i){
      |                             ^
/home/adminq/Git/IPP-jn431513/src/poly.c: In function 'PolyArrZero':
/home/adminq/Git/IPP-jn431513/src/poly.c:431:6: error: static declaration of 'MonoNeg' follows non-static declaration
  431 | void MonoNeg(Mono *m){
      |      ^~~~~~~
/home/adminq/Git/IPP-jn431513/src/poly.c:417:6: note: previous declaration of 'MonoNeg' was here
  417 | void MonoNeg(Mono *m);
      |      ^~~~~~~
/home/adminq/Git/IPP-jn431513/src/poly.c: In function 'PolyNeg':
/home/adminq/Git/IPP-jn431513/src/poly.c:441:29: warning: comparison of integer expressions of different signedness: 'poly_exp_t' {aka 'int'} and 'size_t' {aka 'long unsigned int'} [-Wsign-compare]
  441 |     for(poly_exp_t i = 0; i < p1->size; ++i){
      |                             ^
/home/adminq/Git/IPP-jn431513/src/poly.c: In function 'PolyDegBySorted':
/home/adminq/Git/IPP-jn431513/src/poly.c:466:30: warning: comparison of integer expressions of different signedness: 'poly_exp_t' {aka 'int'} and 'size_t' {aka 'long unsigned int'} [-Wsign-compare]
  466 |      for(poly_exp_t i = 0; i < p->size; ++i){
      |                              ^
/home/adminq/Git/IPP-jn431513/src/poly.c: In function 'PolyDegBy':
/home/adminq/Git/IPP-jn431513/src/poly.c:491:31: warning: comparison of integer expressions of different signedness: 'poly_exp_t' {aka 'int'} and 'size_t' {aka 'const long unsigned int'} [-Wsign-compare]
  491 |       for(poly_exp_t i = 0; i < p->size; ++i){
      |                               ^
/home/adminq/Git/IPP-jn431513/src/poly.c: In function 'PolyDegSorted':
/home/adminq/Git/IPP-jn431513/src/poly.c:509:29: warning: comparison of integer expressions of different signedness: 'poly_exp_t' {aka 'int'} and 'size_t' {aka 'long unsigned int'} [-Wsign-compare]
  509 |     for(poly_exp_t i = 0; i < p->size; ++i){
      |                             ^
/home/adminq/Git/IPP-jn431513/src/poly.c: In function 'PolyIsEqSorted':
/home/adminq/Git/IPP-jn431513/src/poly.c:557:22: warning: comparison of integer expressions of different signedness: 'poly_coeff_t' {aka 'long int'} and 'size_t' {aka 'long unsigned int'} [-Wsign-compare]
  557 |     while(equal && i < p1->size && j < q1->size){
      |                      ^
/home/adminq/Git/IPP-jn431513/src/poly.c:557:38: warning: comparison of integer expressions of different signedness: 'poly_coeff_t' {aka 'long int'} and 'size_t' {aka 'long unsigned int'} [-Wsign-compare]
  557 |     while(equal && i < p1->size && j < q1->size){
      |                                      ^
/home/adminq/Git/IPP-jn431513/src/poly.c: In function 'PolyAt':
/home/adminq/Git/IPP-jn431513/src/poly.c:613:29: warning: comparison of integer expressions of different signedness: 'poly_exp_t' {aka 'int'} and 'size_t' {aka 'long unsigned int'} [-Wsign-compare]
  613 |     for(poly_exp_t i = 0; i < p1->size; ++i){
      |                             ^
/home/adminq/Git/IPP-jn431513/src/poly.c: In function 'PolyArrZero':
/home/adminq/Git/IPP-jn431513/src/poly.c:620:1: error: expected declaration or statement at end of input
  620 | }
      | ^
At top level:
/home/adminq/Git/IPP-jn431513/src/poly.c:605:6: warning: 'PolyAt' defined but not used [-Wunused-function]
  605 | Poly PolyAt(const Poly *p, poly_coeff_t x){
      |      ^~~~~~
/home/adminq/Git/IPP-jn431513/src/poly.c:586:6: warning: 'PolyIsEq' defined but not used [-Wunused-function]
  586 | bool PolyIsEq(const Poly *p, const Poly *q){
      |      ^~~~~~~~
/home/adminq/Git/IPP-jn431513/src/poly.c:476:12: warning: 'PolyDegBy' defined but not used [-Wunused-function]
  476 | poly_exp_t PolyDegBy(const Poly *p, size_t var_idx){
      |            ^~~~~~~~~
/home/adminq/Git/IPP-jn431513/src/poly.c:448:6: warning: 'PolySub' defined but not used [-Wunused-function]
  448 | Poly PolySub(const Poly *p, const Poly *q){
      |      ^~~~~~~
/home/adminq/Git/IPP-jn431513/src/poly.c:282:6: warning: 'PolyAddSorted' defined but not used [-Wunused-function]
  282 | Poly PolyAddSorted(Poly *p1, Poly *q1){
      |      ^~~~~~~~~~~~~
/home/adminq/Git/IPP-jn431513/src/poly.c:166:6: warning: 'MonoSort' defined but not used [-Wunused-function]
  166 | void MonoSort(Mono* m){
      |      ^~~~~~~~
/home/adminq/Git/IPP-jn431513/src/poly.c:40:6: warning: 'PolyReallFromTo' defined but not used [-Wunused-function]
   40 | void PolyReallFromTo(Poly* p, int fromIndex, int toIndex){
      |      ^~~~~~~~~~~~~~~
make[2]: *** [CMakeFiles/poly.dir/build.make:75: CMakeFiles/poly.dir/src/poly.c.o] Error 1
make[1]: *** [CMakeFiles/Makefile2:86: CMakeFiles/poly.dir/all] Error 2
make: *** [Makefile:94: all] Error 2
==6989== Memcheck, a memory error detector
==6989== Copyright (C) 2002-2017, and GNU GPL'd, by Julian Seward et al.
==6989== Using Valgrind-3.16.1 and LibVEX; rerun with -h for copyright info
==6989== Command: ./poly
==6989== 
==6989== Invalid read of size 8
==6989==    at 0x10B766: PolyAddSorted (poly.c:303)
==6989==    by 0x10B8BF: PolyAdd (poly.c:323)
==6989==    by 0x10CEC3: TestOp (poly_example.c:53)
==6989==    by 0x10CF91: TestAdd (poly_example.c:63)
==6989==    by 0x10D44A: SimpleAddTest (poly_example.c:120)
==6989==    by 0x10FF56: main (poly_example.c:323)
==6989==  Address 0x4a4aa48 is 0 bytes after a block of size 24 alloc'd
==6989==    at 0x483E77F: malloc (vg_replace_malloc.c:307)
==6989==    by 0x10A5FA: PolyAlloc (poly.c:60)
==6989==    by 0x10AE80: PolyClone (poly.c:183)
==6989==    by 0x10AF6F: PolyClonePtr (poly.c:196)
==6989==    by 0x10B852: PolyAdd (poly.c:317)
==6989==    by 0x10CEC3: TestOp (poly_example.c:53)
==6989==    by 0x10CF91: TestAdd (poly_example.c:63)
==6989==    by 0x10D44A: SimpleAddTest (poly_example.c:120)
==6989==    by 0x10FF56: main (poly_example.c:323)
==6989== 
==6989== Invalid read of size 8
==6989==    at 0x10B769: PolyAddSorted (poly.c:303)
==6989==    by 0x10B8BF: PolyAdd (poly.c:323)
==6989==    by 0x10CEC3: TestOp (poly_example.c:53)
==6989==    by 0x10CF91: TestAdd (poly_example.c:63)
==6989==    by 0x10D44A: SimpleAddTest (poly_example.c:120)
==6989==    by 0x10FF56: main (poly_example.c:323)
==6989==  Address 0x4a4aa50 is 8 bytes after a block of size 24 alloc'd
==6989==    at 0x483E77F: malloc (vg_replace_malloc.c:307)
==6989==    by 0x10A5FA: PolyAlloc (poly.c:60)
==6989==    by 0x10AE80: PolyClone (poly.c:183)
==6989==    by 0x10AF6F: PolyClonePtr (poly.c:196)
==6989==    by 0x10B852: PolyAdd (poly.c:317)
==6989==    by 0x10CEC3: TestOp (poly_example.c:53)
==6989==    by 0x10CF91: TestAdd (poly_example.c:63)
==6989==    by 0x10D44A: SimpleAddTest (poly_example.c:120)
==6989==    by 0x10FF56: main (poly_example.c:323)
==6989== 
==6989== Invalid read of size 8
==6989==    at 0x10B775: PolyAddSorted (poly.c:303)
==6989==    by 0x10B8BF: PolyAdd (poly.c:323)
==6989==    by 0x10CEC3: TestOp (poly_example.c:53)
==6989==    by 0x10CF91: TestAdd (poly_example.c:63)
==6989==    by 0x10D44A: SimpleAddTest (poly_example.c:120)
==6989==    by 0x10FF56: main (poly_example.c:323)
==6989==  Address 0x4a4aa58 is 16 bytes after a block of size 24 alloc'd
==6989==    at 0x483E77F: malloc (vg_replace_malloc.c:307)
==6989==    by 0x10A5FA: PolyAlloc (poly.c:60)
==6989==    by 0x10AE80: PolyClone (poly.c:183)
==6989==    by 0x10AF6F: PolyClonePtr (poly.c:196)
==6989==    by 0x10B852: PolyAdd (poly.c:317)
==6989==    by 0x10CEC3: TestOp (poly_example.c:53)
==6989==    by 0x10CF91: TestAdd (poly_example.c:63)
==6989==    by 0x10D44A: SimpleAddTest (poly_example.c:120)
==6989==    by 0x10FF56: main (poly_example.c:323)
==6989== 
==6989== Invalid write of size 8
==6989==    at 0x10B7A3: PolyAddSorted (poly.c:304)
==6989==    by 0x10B8BF: PolyAdd (poly.c:323)
==6989==    by 0x10CEC3: TestOp (poly_example.c:53)
==6989==    by 0x10CF91: TestAdd (poly_example.c:63)
==6989==    by 0x10D44A: SimpleAddTest (poly_example.c:120)
==6989==    by 0x10FF56: main (poly_example.c:323)
==6989==  Address 0x4a4aa48 is 0 bytes after a block of size 24 alloc'd
==6989==    at 0x483E77F: malloc (vg_replace_malloc.c:307)
==6989==    by 0x10A5FA: PolyAlloc (poly.c:60)
==6989==    by 0x10AE80: PolyClone (poly.c:183)
==6989==    by 0x10AF6F: PolyClonePtr (poly.c:196)
==6989==    by 0x10B852: PolyAdd (poly.c:317)
==6989==    by 0x10CEC3: TestOp (poly_example.c:53)
==6989==    by 0x10CF91: TestAdd (poly_example.c:63)
==6989==    by 0x10D44A: SimpleAddTest (poly_example.c:120)
==6989==    by 0x10FF56: main (poly_example.c:323)
==6989== 
==6989== Invalid write of size 8
==6989==    at 0x10B7A6: PolyAddSorted (poly.c:304)
==6989==    by 0x10B8BF: PolyAdd (poly.c:323)
==6989==    by 0x10CEC3: TestOp (poly_example.c:53)
==6989==    by 0x10CF91: TestAdd (poly_example.c:63)
==6989==    by 0x10D44A: SimpleAddTest (poly_example.c:120)
==6989==    by 0x10FF56: main (poly_example.c:323)
==6989==  Address 0x4a4aa50 is 8 bytes after a block of size 24 alloc'd
==6989==    at 0x483E77F: malloc (vg_replace_malloc.c:307)
==6989==    by 0x10A5FA: PolyAlloc (poly.c:60)
==6989==    by 0x10AE80: PolyClone (poly.c:183)
==6989==    by 0x10AF6F: PolyClonePtr (poly.c:196)
==6989==    by 0x10B852: PolyAdd (poly.c:317)
==6989==    by 0x10CEC3: TestOp (poly_example.c:53)
==6989==    by 0x10CF91: TestAdd (poly_example.c:63)
==6989==    by 0x10D44A: SimpleAddTest (poly_example.c:120)
==6989==    by 0x10FF56: main (poly_example.c:323)
==6989== 
==6989== Invalid write of size 8
==6989==    at 0x10B7AE: PolyAddSorted (poly.c:304)
==6989==    by 0x10B8BF: PolyAdd (poly.c:323)
==6989==    by 0x10CEC3: TestOp (poly_example.c:53)
==6989==    by 0x10CF91: TestAdd (poly_example.c:63)
==6989==    by 0x10D44A: SimpleAddTest (poly_example.c:120)
==6989==    by 0x10FF56: main (poly_example.c:323)
==6989==  Address 0x4a4aa58 is 16 bytes after a block of size 24 alloc'd
==6989==    at 0x483E77F: malloc (vg_replace_malloc.c:307)
==6989==    by 0x10A5FA: PolyAlloc (poly.c:60)
==6989==    by 0x10AE80: PolyClone (poly.c:183)
==6989==    by 0x10AF6F: PolyClonePtr (poly.c:196)
==6989==    by 0x10B852: PolyAdd (poly.c:317)
==6989==    by 0x10CEC3: TestOp (poly_example.c:53)
==6989==    by 0x10CF91: TestAdd (poly_example.c:63)
==6989==    by 0x10D44A: SimpleAddTest (poly_example.c:120)
==6989==    by 0x10FF56: main (poly_example.c:323)
==6989== 
==6989== Invalid read of size 8
==6989==    at 0x10A21E: PolyIsCoeff (poly.h:101)
==6989==    by 0x10AE66: PolyClone (poly.c:182)
==6989==    by 0x10A299: MonoClone (poly.h:140)
==6989==    by 0x10AEDA: PolyClone (poly.c:185)
==6989==    by 0x10AF6F: PolyClonePtr (poly.c:196)
==6989==    by 0x10AF9B: PolyPrintHelp (poly.c:203)
==6989==    by 0x10B0AE: PolyPrint (poly.c:218)
==6989==    by 0x10B8E4: PolyAdd (poly.c:325)
==6989==    by 0x10CEC3: TestOp (poly_example.c:53)
==6989==    by 0x10CF91: TestAdd (poly_example.c:63)
==6989==    by 0x10D44A: SimpleAddTest (poly_example.c:120)
==6989==    by 0x10FF56: main (poly_example.c:323)
==6989==  Address 0x4a4aa50 is 8 bytes after a block of size 24 alloc'd
==6989==    at 0x483E77F: malloc (vg_replace_malloc.c:307)
==6989==    by 0x10A5FA: PolyAlloc (poly.c:60)
==6989==    by 0x10AE80: PolyClone (poly.c:183)
==6989==    by 0x10AF6F: PolyClonePtr (poly.c:196)
==6989==    by 0x10B852: PolyAdd (poly.c:317)
==6989==    by 0x10CEC3: TestOp (poly_example.c:53)
==6989==    by 0x10CF91: TestAdd (poly_example.c:63)
==6989==    by 0x10D44A: SimpleAddTest (poly_example.c:120)
==6989==    by 0x10FF56: main (poly_example.c:323)
==6989== 
==6989== Invalid read of size 8
==6989==    at 0x10AF19: PolyClone (poly.c:190)
==6989==    by 0x10A299: MonoClone (poly.h:140)
==6989==    by 0x10AEDA: PolyClone (poly.c:185)
==6989==    by 0x10AF6F: PolyClonePtr (poly.c:196)
==6989==    by 0x10AF9B: PolyPrintHelp (poly.c:203)
==6989==    by 0x10B0AE: PolyPrint (poly.c:218)
==6989==    by 0x10B8E4: PolyAdd (poly.c:325)
==6989==    by 0x10CEC3: TestOp (poly_example.c:53)
==6989==    by 0x10CF91: TestAdd (poly_example.c:63)
==6989==    by 0x10D44A: SimpleAddTest (poly_example.c:120)
==6989==    by 0x10FF56: main (poly_example.c:323)
==6989==  Address 0x4a4aa48 is 0 bytes after a block of size 24 alloc'd
==6989==    at 0x483E77F: malloc (vg_replace_malloc.c:307)
==6989==    by 0x10A5FA: PolyAlloc (poly.c:60)
==6989==    by 0x10AE80: PolyClone (poly.c:183)
==6989==    by 0x10AF6F: PolyClonePtr (poly.c:196)
==6989==    by 0x10B852: PolyAdd (poly.c:317)
==6989==    by 0x10CEC3: TestOp (poly_example.c:53)
==6989==    by 0x10CF91: TestAdd (poly_example.c:63)
==6989==    by 0x10D44A: SimpleAddTest (poly_example.c:120)
==6989==    by 0x10FF56: main (poly_example.c:323)
==6989== 
==6989== Invalid read of size 4
==6989==    at 0x10A29E: MonoClone (poly.h:140)
==6989==    by 0x10AEDA: PolyClone (poly.c:185)
==6989==    by 0x10AF6F: PolyClonePtr (poly.c:196)
==6989==    by 0x10AF9B: PolyPrintHelp (poly.c:203)
==6989==    by 0x10B0AE: PolyPrint (poly.c:218)
==6989==    by 0x10B8E4: PolyAdd (poly.c:325)
==6989==    by 0x10CEC3: TestOp (poly_example.c:53)
==6989==    by 0x10CF91: TestAdd (poly_example.c:63)
==6989==    by 0x10D44A: SimpleAddTest (poly_example.c:120)
==6989==    by 0x10FF56: main (poly_example.c:323)
==6989==  Address 0x4a4aa58 is 16 bytes after a block of size 24 alloc'd
==6989==    at 0x483E77F: malloc (vg_replace_malloc.c:307)
==6989==    by 0x10A5FA: PolyAlloc (poly.c:60)
==6989==    by 0x10AE80: PolyClone (poly.c:183)
==6989==    by 0x10AF6F: PolyClonePtr (poly.c:196)
==6989==    by 0x10B852: PolyAdd (poly.c:317)
==6989==    by 0x10CEC3: TestOp (poly_example.c:53)
==6989==    by 0x10CF91: TestAdd (poly_example.c:63)
==6989==    by 0x10D44A: SimpleAddTest (poly_example.c:120)
==6989==    by 0x10FF56: main (poly_example.c:323)
==6989== 
==6989== Invalid read of size 4
==6989==    at 0x10A29E: MonoClone (poly.h:140)
==6989==    by 0x10AEDA: PolyClone (poly.c:185)
==6989==    by 0x10AF6F: PolyClonePtr (poly.c:196)
==6989==    by 0x10C40D: PolyDeg (poly.c:506)
==6989==    by 0x10B8F0: PolyAdd (poly.c:326)
==6989==    by 0x10CEC3: TestOp (poly_example.c:53)
==6989==    by 0x10CF91: TestAdd (poly_example.c:63)
==6989==    by 0x10D44A: SimpleAddTest (poly_example.c:120)
==6989==    by 0x10FF56: main (poly_example.c:323)
==6989==  Address 0x4a4aa58 is 16 bytes after a block of size 24 alloc'd
==6989==    at 0x483E77F: malloc (vg_replace_malloc.c:307)
==6989==    by 0x10A5FA: PolyAlloc (poly.c:60)
==6989==    by 0x10AE80: PolyClone (poly.c:183)
==6989==    by 0x10AF6F: PolyClonePtr (poly.c:196)
==6989==    by 0x10B852: PolyAdd (poly.c:317)
==6989==    by 0x10CEC3: TestOp (poly_example.c:53)
==6989==    by 0x10CF91: TestAdd (poly_example.c:63)
==6989==    by 0x10D44A: SimpleAddTest (poly_example.c:120)
==6989==    by 0x10FF56: main (poly_example.c:323)
==6989== 
==6989== Invalid read of size 4
==6989==    at 0x10A29E: MonoClone (poly.h:140)
==6989==    by 0x10AEDA: PolyClone (poly.c:185)
==6989==    by 0x10AF6F: PolyClonePtr (poly.c:196)
==6989==    by 0x10C764: PolyIsEq (poly.c:569)
==6989==    by 0x10CEDE: TestOp (poly_example.c:54)
==6989==    by 0x10CF91: TestAdd (poly_example.c:63)
==6989==    by 0x10D44A: SimpleAddTest (poly_example.c:120)
==6989==    by 0x10FF56: main (poly_example.c:323)
==6989==  Address 0x4a4aa58 is 16 bytes after a block of size 24 alloc'd
==6989==    at 0x483E77F: malloc (vg_replace_malloc.c:307)
==6989==    by 0x10A5FA: PolyAlloc (poly.c:60)
==6989==    by 0x10AE80: PolyClone (poly.c:183)
==6989==    by 0x10AF6F: PolyClonePtr (poly.c:196)
==6989==    by 0x10B852: PolyAdd (poly.c:317)
==6989==    by 0x10CEC3: TestOp (poly_example.c:53)
==6989==    by 0x10CF91: TestAdd (poly_example.c:63)
==6989==    by 0x10D44A: SimpleAddTest (poly_example.c:120)
==6989==    by 0x10FF56: main (poly_example.c:323)
==6989== 
==6989== Invalid read of size 8
==6989==    at 0x10A21E: PolyIsCoeff (poly.h:101)
==6989==    by 0x10ADDB: PolyDestroy (poly.c:173)
==6989==    by 0x10A27A: MonoDestroy (poly.h:124)
==6989==    by 0x10AE11: PolyDestroy (poly.c:175)
==6989==    by 0x10CF05: TestOp (poly_example.c:57)
==6989==    by 0x10CF91: TestAdd (poly_example.c:63)
==6989==    by 0x10D44A: SimpleAddTest (poly_example.c:120)
==6989==    by 0x10FF56: main (poly_example.c:323)
==6989==  Address 0x4a4aa50 is 8 bytes after a block of size 24 alloc'd
==6989==    at 0x483E77F: malloc (vg_replace_malloc.c:307)
==6989==    by 0x10A5FA: PolyAlloc (poly.c:60)
==6989==    by 0x10AE80: PolyClone (poly.c:183)
==6989==    by 0x10AF6F: PolyClonePtr (poly.c:196)
==6989==    by 0x10B852: PolyAdd (poly.c:317)
==6989==    by 0x10CEC3: TestOp (poly_example.c:53)
==6989==    by 0x10CF91: TestAdd (poly_example.c:63)
==6989==    by 0x10D44A: SimpleAddTest (poly_example.c:120)
==6989==    by 0x10FF56: main (poly_example.c:323)
==6989== 
==6989== Invalid read of size 8
==6989==    at 0x10B766: PolyAddSorted (poly.c:303)
==6989==    by 0x10B65F: PolyAddSorted (poly.c:289)
==6989==    by 0x10B8BF: PolyAdd (poly.c:323)
==6989==    by 0x10CEC3: TestOp (poly_example.c:53)
==6989==    by 0x10CF91: TestAdd (poly_example.c:63)
==6989==    by 0x10D536: SimpleAddTest (poly_example.c:123)
==6989==    by 0x10FF56: main (poly_example.c:323)
==6989==  Address 0x4a4b728 is 0 bytes after a block of size 24 alloc'd
==6989==    at 0x483E77F: malloc (vg_replace_malloc.c:307)
==6989==    by 0x10A5FA: PolyAlloc (poly.c:60)
==6989==    by 0x10AE80: PolyClone (poly.c:183)
==6989==    by 0x10AF6F: PolyClonePtr (poly.c:196)
==6989==    by 0x10B862: PolyAdd (poly.c:317)
==6989==    by 0x10CEC3: TestOp (poly_example.c:53)
==6989==    by 0x10CF91: TestAdd (poly_example.c:63)
==6989==    by 0x10D536: SimpleAddTest (poly_example.c:123)
==6989==    by 0x10FF56: main (poly_example.c:323)
==6989== 
==6989== Invalid read of size 8
==6989==    at 0x10B769: PolyAddSorted (poly.c:303)
==6989==    by 0x10B65F: PolyAddSorted (poly.c:289)
==6989==    by 0x10B8BF: PolyAdd (poly.c:323)
==6989==    by 0x10CEC3: TestOp (poly_example.c:53)
==6989==    by 0x10CF91: TestAdd (poly_example.c:63)
==6989==    by 0x10D536: SimpleAddTest (poly_example.c:123)
==6989==    by 0x10FF56: main (poly_example.c:323)
==6989==  Address 0x4a4b730 is 8 bytes after a block of size 24 alloc'd
==6989==    at 0x483E77F: malloc (vg_replace_malloc.c:307)
==6989==    by 0x10A5FA: PolyAlloc (poly.c:60)
==6989==    by 0x10AE80: PolyClone (poly.c:183)
==6989==    by 0x10AF6F: PolyClonePtr (poly.c:196)
==6989==    by 0x10B862: PolyAdd (poly.c:317)
==6989==    by 0x10CEC3: TestOp (poly_example.c:53)
==6989==    by 0x10CF91: TestAdd (poly_example.c:63)
==6989==    by 0x10D536: SimpleAddTest (poly_example.c:123)
==6989==    by 0x10FF56: main (poly_example.c:323)
==6989== 
==6989== Invalid read of size 8
==6989==    at 0x10B775: PolyAddSorted (poly.c:303)
==6989==    by 0x10B65F: PolyAddSorted (poly.c:289)
==6989==    by 0x10B8BF: PolyAdd (poly.c:323)
==6989==    by 0x10CEC3: TestOp (poly_example.c:53)
==6989==    by 0x10CF91: TestAdd (poly_example.c:63)
==6989==    by 0x10D536: SimpleAddTest (poly_example.c:123)
==6989==    by 0x10FF56: main (poly_example.c:323)
==6989==  Address 0x4a4b738 is 16 bytes after a block of size 24 alloc'd
==6989==    at 0x483E77F: malloc (vg_replace_malloc.c:307)
==6989==    by 0x10A5FA: PolyAlloc (poly.c:60)
==6989==    by 0x10AE80: PolyClone (poly.c:183)
==6989==    by 0x10AF6F: PolyClonePtr (poly.c:196)
==6989==    by 0x10B862: PolyAdd (poly.c:317)
==6989==    by 0x10CEC3: TestOp (poly_example.c:53)
==6989==    by 0x10CF91: TestAdd (poly_example.c:63)
==6989==    by 0x10D536: SimpleAddTest (poly_example.c:123)
==6989==    by 0x10FF56: main (poly_example.c:323)
==6989== 
==6989== Invalid write of size 8
==6989==    at 0x10B7A3: PolyAddSorted (poly.c:304)
==6989==    by 0x10B65F: PolyAddSorted (poly.c:289)
==6989==    by 0x10B8BF: PolyAdd (poly.c:323)
==6989==    by 0x10CEC3: TestOp (poly_example.c:53)
==6989==    by 0x10CF91: TestAdd (poly_example.c:63)
==6989==    by 0x10D536: SimpleAddTest (poly_example.c:123)
==6989==    by 0x10FF56: main (poly_example.c:323)
==6989==  Address 0x4a4b728 is 0 bytes after a block of size 24 alloc'd
==6989==    at 0x483E77F: malloc (vg_replace_malloc.c:307)
==6989==    by 0x10A5FA: PolyAlloc (poly.c:60)
==6989==    by 0x10AE80: PolyClone (poly.c:183)
==6989==    by 0x10AF6F: PolyClonePtr (poly.c:196)
==6989==    by 0x10B862: PolyAdd (poly.c:317)
==6989==    by 0x10CEC3: TestOp (poly_example.c:53)
==6989==    by 0x10CF91: TestAdd (poly_example.c:63)
==6989==    by 0x10D536: SimpleAddTest (poly_example.c:123)
==6989==    by 0x10FF56: main (poly_example.c:323)
==6989== 
==6989== Invalid write of size 8
==6989==    at 0x10B7A6: PolyAddSorted (poly.c:304)
==6989==    by 0x10B65F: PolyAddSorted (poly.c:289)
==6989==    by 0x10B8BF: PolyAdd (poly.c:323)
==6989==    by 0x10CEC3: TestOp (poly_example.c:53)
==6989==    by 0x10CF91: TestAdd (poly_example.c:63)
==6989==    by 0x10D536: SimpleAddTest (poly_example.c:123)
==6989==    by 0x10FF56: main (poly_example.c:323)
==6989==  Address 0x4a4b730 is 8 bytes after a block of size 24 alloc'd
==6989==    at 0x483E77F: malloc (vg_replace_malloc.c:307)
==6989==    by 0x10A5FA: PolyAlloc (poly.c:60)
==6989==    by 0x10AE80: PolyClone (poly.c:183)
==6989==    by 0x10AF6F: PolyClonePtr (poly.c:196)
==6989==    by 0x10B862: PolyAdd (poly.c:317)
==6989==    by 0x10CEC3: TestOp (poly_example.c:53)
==6989==    by 0x10CF91: TestAdd (poly_example.c:63)
==6989==    by 0x10D536: SimpleAddTest (poly_example.c:123)
==6989==    by 0x10FF56: main (poly_example.c:323)
==6989== 
==6989== Invalid write of size 8
==6989==    at 0x10B7AE: PolyAddSorted (poly.c:304)
==6989==    by 0x10B65F: PolyAddSorted (poly.c:289)
==6989==    by 0x10B8BF: PolyAdd (poly.c:323)
==6989==    by 0x10CEC3: TestOp (poly_example.c:53)
==6989==    by 0x10CF91: TestAdd (poly_example.c:63)
==6989==    by 0x10D536: SimpleAddTest (poly_example.c:123)
==6989==    by 0x10FF56: main (poly_example.c:323)
==6989==  Address 0x4a4b738 is 16 bytes after a block of size 24 alloc'd
==6989==    at 0x483E77F: malloc (vg_replace_malloc.c:307)
==6989==    by 0x10A5FA: PolyAlloc (poly.c:60)
==6989==    by 0x10AE80: PolyClone (poly.c:183)
==6989==    by 0x10AF6F: PolyClonePtr (poly.c:196)
==6989==    by 0x10B862: PolyAdd (poly.c:317)
==6989==    by 0x10CEC3: TestOp (poly_example.c:53)
==6989==    by 0x10CF91: TestAdd (poly_example.c:63)
==6989==    by 0x10D536: SimpleAddTest (poly_example.c:123)
==6989==    by 0x10FF56: main (poly_example.c:323)
==6989== 
==6989== 
==6989== HEAP SUMMARY:
==6989==     in use at exit: 1,424 bytes in 72 blocks
==6989==   total heap usage: 83 allocs, 11 frees, 2,784 bytes allocated
==6989== 
==6989== LEAK SUMMARY:
==6989==    definitely lost: 992 bytes in 62 blocks
==6989==    indirectly lost: 432 bytes in 10 blocks
==6989==      possibly lost: 0 bytes in 0 blocks
==6989==    still reachable: 0 bytes in 0 blocks
==6989==         suppressed: 0 bytes in 0 blocks
==6989== Rerun with --leak-check=full to see details of leaked memory
==6989== 
==6989== For lists of detected and suppressed errors, rerun with: -s
==6989== ERROR SUMMARY: 32 errors from 18 contexts (suppressed: 0 from 0)
